{
  "$schema": "http://json-schema.org/draft-04/schema#",
  "type": "object",
  "properties": {
    "width": {
      "type": "integer"
    },
    "height": {
      "type": "integer"
    },
    "animations": {
      "type": "array",
      "items": {
        "type": "object",
        "properties": {
          "hash": {
            "type": "integer"
          },
          "action": {
            "type": "string"
          },
          "state": {
            "type": "string"
          },
          "direction": {
            "type": "string"
          },
          "frames": {
            "type": "integer"
          }
        },
        "required": [
          "action",
          "state",
          "direction",
          "frames"
        ]
      }
    }
  },
  "required": [
    "width",
    "height",
    "animations"
  ]
}